…
(22+39)/(20+39+33+22)

i.e. \>50% of teams win chasing so what does that mean?

## Easier engagement of fans

To the surprise of many, its hard to engage cricket fans into the analytics behind the game. Reasons for this are generally centred around reproducibility and explainability to fans.

Without an easy accessible medium how can crickets version of an analytics community grow.

something something look towards how EPA has changed the way fans are engaged in NFL analytics - so maybe the change in run rate can be like EPA?


```
## # A tibble: 831,409 x 50
##    match_id inning  over extra_runs earned_runs  runs wicket wickets_taken
##       <int>  <int> <dbl>      <int>       <int> <int> <lgl>          <int>
##  1   439151      2   0.1          0           0     0 FALSE              0
##  2   439150      2   0.1          0           0     0 FALSE              0
##  3   439149      2   0.1          0           0     0 FALSE              0
##  4   439148      2   0.1          0           0     0 FALSE              0
##  5   452152      2   0.1          0           1     1 FALSE              0
##  6   452151      2   0.1          1           0     1 FALSE              0
##  7   452151      2   0.1          0           0     1 FALSE              0
##  8   452150      2   0.1          0           0     0 FALSE              0
##  9   452149      2   0.1          0           0     0 FALSE              0
## 10   452148      2   0.1          4           0     4 FALSE              0
## # … with 831,399 more rows, and 42 more variables: scorecard_link <chr>,
## #   batsman_name <chr>, bowler_name <chr>, extra <chr>, team <chr>,
## #   target <int>, play_description <chr>, batsman <chr>, bowler <chr>,
## #   wicket_description <chr>, year <int>, tournament_type <chr>,
## #   tournament_name <chr>, inning_total <chr>, rpo <dbl>, total <int>,
## #   duckworth_lewis <lgl>, match_summary <chr>, batsman_links <chr>,
## #   batsman_id <int>, bowler_links <chr>, bowler_id <int>, batting_order <int>,
## #   batting_team_result <chr>, bucketed_over <int>, ball_in_over <dbl>,
## #   starting_required_run_rate <dbl>, balls_remaining <int>, resources <dbl>,
…
